{
   "run_name":"kaggle_stroke_predictor_xpr2_1c",
   "project_name":"kaggle_stroke_predictor_xpr2",
   "pipeline_name":"feature_engg_and_classifier_pipeline",
   "pipeline_flavor":"pyspark",
   "pipeline_version":2,

   "run_parameters":{
      "driver_memory":"512m",
      "executor_memory":"512m",
      "executor_cores":"1",
      "num_executors":1,

      "model_param_numTrees":"3",
      "model_param_maxDepth":"3"
   }
}
